^C:\USERS\FOKAM\ONEDRIVE\РАБОЧИЙ СТОЛ\C++\HW18\HW18.CPP
C:\USERS\FOKAM\ONEDRIVE\Рабочий стол\C++\HW18\X64\DEBUG\VC143.PDB
C:\USERS\FOKAM\ONEDRIVE\Рабочий стол\C++\HW18\X64\DEBUG\VC143.IDB
C:\USERS\FOKAM\ONEDRIVE\Рабочий стол\C++\HW18\X64\DEBUG\HW18.OBJ
